Visualisation with ggplot2
…
---

### Tidy prevthe ious data

```r
library(tidyverse)

(fertilityDataTidy <- fertilityData %>%
   rename(Country = `Total fertility rate`) %>%
   gather(key = "Year", value = "Fertility", -Country))
```

```
## # A tibble: 72 x 3
##                Country  Year Fertility
##                 <fctr> <chr>     <dbl>
##  1         Afghanistan  1800      7.00
##  2             Albania  1800      4.60
##  3             Algeria  1800      6.99
##  4              Angola  1800      6.93
##  5 Antigua and Barbuda  1800      5.00
##  6           Argentina  1800      6.80
##  7             Armenia  1800      7.80
##  8               Aruba  1800      5.64
##  9           Australia  1800      6.50
## 10             Austria  1800      5.10
## # ... with 62 more rows
```
…
